Keyhash : 6gA27y/FXPj9Eub/G17IlRPneBc=
Alias name: lamt
password : android
Creation date: Mar 25, 2017
Entry type: PrivateKeyEntry
Certificate chain length: 1
Certificate[1]:
Owner: CN=Lam Khuong Trung
Issuer: CN=Lam Khuong Trung

Serial number: 2ba55844
Valid from: Fri Dec 23 15:29:42 ICT 2016 until: Sun Dec 16 15:29:42 ICT 2046

Certificate fingerprints:
	
MD5:  2D:90:2B:4B:9C:92:8D:25:B9:CC:27:AE:82:BB:27:9A
	 
SHA1: EA:00:36:EF:2F:C5:5C:F8:FD:12:E6:FF:1B:5E:C8:95:13:E7:78:17
	 
SHA256: C5:CC:6D:93:C8:00:D4:5F:B3:2A:70:9D:02:C0:8D:53:F6:20:1A:13:02:92:D1:AA:84:39:66:C9:51:DD:71:52
	 
Signature algorithm 
name: SHA256withRSA
	 
Version: 3

Extensions: 

#1: ObjectId: 2.5.29.14 Criticality=false

SubjectKeyIdentifier [
KeyIdentifier [
0000: 57 7D 83 44 30 07 88 E5   C0 48 DA 4A EC 5F 1E 10  W..D0....H.J._..
0010: D2 BF 95 BA                                        ....
]
]
